// typedef enum {
// 	DT_LIGHTNING,
// 	DT_BASH,
// 	DT_FIRE
// } damage_type;


enumflags {
	DF_NOTHING,
	DF_ARMOUR,
	DF_RESIST_ENERGY
};

typedef enum {
	DT_PLASMA = (DF_ARMOUR | DF_RESIST_ENERGY)
} damage_type;



void apply_damage(
	entity targ,
	entity inflictor,
	entity attacker,
	float healthdamage,
	float damage,
	string dethtype,
	damage_type dmg_type,
	vector damgpoint,
	vector force,
	void(entity t, entity a, string m, damage_type dmg_type) obituary_function
) {
}
