// TODO: Make the sentry follow the deployable/base

void item_deployable_sentry() {
	//
	// A carryable that can be deployed and moved
	//

	self.model = "progs/item_deployable_sentry.bsp";
	precache_model(self.model);
	setmodel(self, self.model);

	self.encumberance = IT_ENCUMBER_DISARM;

	self.flags = self.flags | FL_CARRYABLE;
	self.effects |= EF_DYNAMICMODELLIGHT;

	setorigin(self, self.origin);

	self.touch = item_carryable_touch;
	self.activate = item_deployable_activate;
	self.deactivate = item_deployable_deactivate;

	// from the basic item code
	self.mdl = self.model; // so it can be restored on respawn
	self.solid = SOLID_TRIGGER;
	self.movetype = MOVETYPE_TOSS;
	self.velocity = '0 0 0';

	droptofloor();

	//
	// Create turret
	//
	entity deployable = self;
	self = spawn();
	func_sentry();
	setorigin(self, deployable.origin + '0 0 32');
	self.activate();
	self.owner = deployable;
	self.movetype = MOVETYPE_FOLLOW;
	self.aiment = deployable;
	self.view_ofs = '0 0 32';
	self.solid = SOLID_NOT;
	self = deployable;
}



void item_deployable_activate() {
	entity deployable = self;
	entity e = find(world, classname, "func_sentry");

	while (e) {
		if (e.aiment && e.aiment == deployable) {
			self = e;
			self.activate();
			break;
		}
		e = find(e, classname, "func_sentry");
	}

	self = deployable;
}



void item_deployable_deactivate() {
	entity deployable = self;
	entity e = find(world, classname, "func_sentry");

	while (e) {
		if (e.aiment && e.aiment == deployable) {
			self = e;
			self.deactivate();
			break;
		}
		e = find(e, classname, "func_sentry");
	}

	self = deployable;
}
