$frame kick1 kick2 kick3 kick4 kick5

void melee_kick1()  = [$kick1, melee_kick2] {self.weaponframe=1;};			// instant melee axe attack
void melee_kick2()  = [$kick2, melee_kick3] {self.weaponframe=2;self.punchangle_x = -3;};
void melee_kick3()  = [$kick3, melee_kick4] {self.weaponframe=3; kick_attack();};
void melee_kick4()  = [$kick1, melee_kick5] {self.weaponframe=4;};
void melee_kick5()  = [$kick4, player_run]  {self.weaponframe=4; self.meleeing=0; W_SetCurrentAmmo();};

void melee_kick6()  = [$kick1, melee_kick7]  {self.weaponframe=5;};			// instant melee axe attack
void melee_kick7()  = [$kick2, melee_kick8]  {self.weaponframe=6;self.punchangle_x = 2;self.punchangle_y = -3;};
void melee_kick8()  = [$kick3, melee_kick9]  {self.weaponframe=7; kick_attack();};
void melee_kick9()  = [$kick1, melee_kick10] {self.weaponframe=7;};
void melee_kick10() = [$kick4, player_run]   {self.weaponframe=7; self.meleeing=0; W_SetCurrentAmmo();};



void kick_attack() {
	vector source;
	vector org;

	makevectors (self.v_angle);
	source = self.origin + '0 0 16';
	traceline (source, source + v_forward*64, FALSE, self);
	if (trace_fraction == 1.0)
		return;

	org = trace_endpos - v_forward * 4;

	if (trace_ent.takedamage) {
		trace_ent.axhitme = 1;
		SpawnBlood(org, '0 0 0', 20);
		T_Damage(trace_ent, self, self, 20);
	}
	else {
		// hit wall
		sound (self, CHAN_WEAPON, "player/axhit2.wav", 1, ATTN_NORM);
		WriteByte(MSG_BROADCAST, SVC_TEMPENTITY);
		WriteByte(MSG_BROADCAST, TE_GUNSHOT);
		WriteVector(MSG_BROADCAST, org);
	}
}



void melee_kick() {
	// An kick attack

	self.weaponmodel = "progs/v_boot.mdl";
	sound7(self, CHAN_WEAPON, "weapons/ax1.wav", 1, ATTN_NORM, 0, 0);

	self.attack_finished = time + 0.6;
	self.meleeing = 1;

	if (random() < 0.5) {
		melee_kick1();
	}
	else {
		melee_kick6();
	}
}
