/*QUAKED weapon_nailgun (0 .5 .8) (-16 -16 0) (16 16 32)
*/

void weapon_nailgun() {
	precache_model("progs/g_nail.mdl");
	setmodel(self, "progs/g_nail.mdl");
	self.weapon = IT_NAILGUN;
	self.netname = "nailgun";
	self.touch = weapon_touch;
	self.ammo_nails = 30;
	setsize(self, '-16 -16 0', '16 16 56');
	StartItem();
}
